﻿Time (s),ESC signal (µs),Servo 1 (µs),Servo 2 (µs),Servo 3 (µs),Thrust (gf),Voltage (V),Current (A),Motor Electrical Speed (RPM),Motor Optical Speed (RPM),Electrical Power (W),Overall Efficiency (gf/W),App message,
0.7875556999999982,1000,,,,0.2724172091139777,12.276431286489212,0.059725066972595775,0,0,0.7332062717010551,0.299528662370295,,
0.7646143999999367,1100,,,,3.905944173241316,12.27857631715669,0.04409267797031912,2979,0,0.541394579198614,7.2628890473164205,,
3.396909299999941,1169.230769230768,,,,11.245061251923568,12.275647094858096,0.11255566967681237,5021,0,1.3816931872983356,8.140495912018414,,
6.027071199999937,1238.4615384615388,,,,19.98452822299611,12.270568580400308,0.20423656837212037,6797,0,2.506099489708923,7.977634047969158,,
8.74399349999994,1307.6923076923067,,,,34.064850365164446,12.262053073544429,0.38316124090269954,8725,0,4.698342872886468,7.25084195190611,,
11.40444139999993,1376.9230769230774,,,,47.72399187603391,12.250611137199874,0.5791273057142988,10155,0,7.0946614487259705,6.726951086268747,,
14.023502299999919,1446.1538461538453,,,,69.27671370026573,12.230975843309828,0.9120596483627992,11928,0,11.155380391101332,6.210287573431054,,
16.71656679999993,1515.3846153846157,,,,86.02929440609434,12.210365750771082,1.228681146559695,13240,0,15.00264535259336,5.734296158672725,,
19.472326999999936,1584.6153846153848,,,,108.90475928171747,12.179050282012037,1.6829829791061994,14774,0,20.497136604065826,5.313206772422236,,
22.136698799999923,1653.846153846155,,,,133.27426418069035,12.14224041874593,2.225475948151476,16166,0,27.022266420474704,4.932036975287664,,
24.85642679999993,1723.0769230769222,,,,153.7665854819026,12.103652613626558,2.770073901372669,17291,0,33.52802010421594,4.5862273680396966,,
27.553453099999928,1792.307692307692,,,,176.729758360979,12.057685638942683,3.4231475199845245,18425,0,41.275257869263854,4.281746671650063,,
30.343509999999927,1861.5384615384633,,,,197.31077102137752,12.00650264381947,4.13389496865516,19500,0,49.633629378358386,3.975332179388947,,
40.976136299999936,1930.769230769233,,,,224.23602258038315,11.963765068018064,5.055810708467191,20444,0,60.48663678068026,3.70727273157545,,
51.760423699999926,2000,,,,247.6990697052942,11.897017114861665,6.202501912242139,21547,0,73.79141670824278,3.3567570540737117,,
