﻿Time (s),ESC signal (µs),Servo 1 (µs),Servo 2 (µs),Servo 3 (µs),AccX (g),AccY (g),AccZ (g),Torque (gf·m),Thrust (gf),Voltage (V),Current (A),Motor Electrical Speed (RPM),Motor Optical Speed (RPM),Electrical Power (W),Mechanical Power (W),Motor Efficiency (%),Propeller Mech. Efficiency (gf/W),Overall Efficiency (gf/W),Vibration (g),App message,
0.5567838750000169,1000,,,,-0.0625,0.0384765625,-0.99580078125,0.026294117115498103,-0.6422011488973534,7.877736723423004,0.028240306694060587,0,0,0.22247022130805144,0,0,0,0,0.066259765625,,
0.5550159999999479,1100,,,,-0.054248046875,0.022412109375,-0.997412109375,0.054685245495759635,2.7721047380800297,7.875801169872284,0.06629399463534352,0,0,0.5221166138149217,0,0,0,0,0.088037109375,,
2.810991999999963,1150,,,,-0.0537109375,0.0263671875,-0.991455078125,0.09116045233765137,7.389884875272643,7.872474360466003,0.11732876926660533,3606,0,0.9236693499641214,0.337628449678572,36.692783500054944,22.063284356610566,8.022497054086562,0.17294921875,,
5.0889756249999545,1200,,,,-0.05849609375,0.02333984375,-0.9947265625,0.1374057151168989,13.596157666828312,7.867609035968781,0.20676931265741588,4700,0,1.6267821824759536,0.6633743382187858,40.82684408505624,20.637257631117205,8.36735947973259,0.37236328125,,
7.326829749999961,1250,,,,-0.05849609375,0.026171875,-0.995654296875,0.19157209889914253,20.02624433615822,7.860868811607361,0.3173722868040203,5688,0,2.4948231846631534,1.1191380269885685,44.894417569552516,17.922512735711265,8.03178021584188,0.82822265625,,
9.61595299999996,1300,,,,-0.059619140625,0.028955078125,-0.99541015625,0.26606906158200005,27.98064413449235,7.852801823616028,0.4732461673393845,6587,0,3.716305539663059,1.7997264239136483,48.4521540464581,15.572655996091344,7.5321985419679045,0.856640625,,
11.854890374999952,1350,,,,-0.0521484375,0.023291015625,-0.98974609375,0.34302986533137325,37.57509597287765,7.8420172214508055,0.6582753566280011,7489,0,5.162203316901273,2.638265246657286,51.116300420188814,14.251668646755943,7.280332054086391,0.75419921875,,
14.126341124999962,1400,,,,-0.05458984375,0.028515625,-1.004833984375,0.41309196148996835,46.94314368053049,7.828424751758575,0.8762756806984549,8353,0,6.8598541786790435,3.5435503824995713,51.658766265583,13.255135395654024,6.844169266472201,1.54189453125,,
16.35772974999995,1450,,,,-0.057861328125,0.028271484375,-1.007958984375,0.49943070639832,57.6288290347596,7.8110597133636475,1.143147210516036,9175,0,8.929192156845108,4.70570572513123,52.702007898789816,12.250515769184217,6.4542811439887,0.973291015625,,
18.58809124999994,1500,,,,-0.058203125,0.02265625,-0.999072265625,0.593600432672785,69.01299078617649,7.791600298881531,1.4391326707974081,9940,0,11.21314290916557,6.059557989570276,54.04525996150865,11.39085249408104,6.155218324872382,0.442626953125,,
20.821054249999964,1550,,,,-0.0578125,0.020166015625,-0.996875,0.6850682511356526,79.92304011313799,7.769629776477814,1.777233980335296,10667,0,13.808442249115597,7.5045739209059805,54.357466690361875,10.65478507392661,5.788707087672579,0.28896484375,,
23.07350887499996,1600,,,,-0.056884765625,0.0251953125,-0.998388671875,0.7729072120463817,91.80152894353996,7.742203462123871,2.1791472179070124,11401,0,16.8713822580248,9.049352868510576,53.644293975424944,10.146736261234397,5.441940431655444,0.182568359375,,
25.333583874999963,1650,,,,-0.059521484375,0.019140625,-0.992578125,0.8766732625688052,102.84897917329808,7.713009071350098,2.586935250200332,12088,0,19.95305466082794,10.882876328025814,54.54398859200186,9.45390553484733,5.154764349793966,0.102880859375,,
27.595513374999967,1700,,,,-0.049169921875,0.030029296875,-1.0056640625,0.9638560751444594,114.78145742051396,7.678648471832275,3.0378425819054256,12719,0,23.32650185605399,12.589227989760332,53.971648236270184,9.11926091559035,4.920978635445947,0.127880859375,,
29.860677749999972,1750,,,,-0.06123046875,0.017724609375,-0.994384765625,1.044496720075461,126.16043332528665,7.646314632892609,3.525961784757674,13294,0,26.96060666934789,14.259684755662935,52.891793733579746,8.849946481085588,4.67975633229476,0.17841796875,,
32.13079274999994,1800,,,,-0.05361328125,0.025439453125,-1.002978515625,1.1108263117169193,136.146152219286,7.610449028015137,4.0364431482926015,13798,0,30.719138435967984,15.740922946912232,51.242127920815804,8.65375055223606,4.4320333915883685,0.331591796875,,
40.13013149999996,1850,,,,-0.059228515625,0.022509765625,-0.99306640625,1.2509366582756893,150.82857652515162,7.5795777320861815,4.654718754924835,14385,0,35.28082270635822,18.47952915347472,52.3788042426396,8.162452839841173,4.275117705796098,0.2677734375,,
48.35043924999995,1900,,,,-0.057177734375,0.025439453125,-1.001416015625,1.324030929302399,161.36796866488217,7.545211410522461,5.2304527742043145,14891,0,39.46489926904894,20.247333865961725,51.30586969630256,7.970561087866018,4.088874109751794,0.404638671875,,
56.62034612499995,1950,,,,-0.058837890625,0.019873046875,-0.992578125,1.3570902400158296,172.13984268352343,7.507328343391419,5.812947557605804,15385,0,43.63975885827348,21.441839986766173,49.13235012819189,8.029496243685049,3.9446079927676747,0.326513671875,,
65.09616312499995,2000,,,,-0.054541015625,0.022509765625,-0.9962890625,1.4729620301032282,181.839944798238,7.463573706150055,6.488957033790648,15760,0,48.43088836348728,23.83862087616478,49.22352117360809,7.6287425504047,3.7546364769133707,0.24306640625,,
