﻿Time (s),ESC signal (µs),Servo 1 (µs),Servo 2 (µs),Servo 3 (µs),AccX (g),AccY (g),AccZ (g),Torque (gf·m),Thrust (gf),Voltage (V),Current (A),Motor Electrical Speed (RPM),Motor Optical Speed (RPM),Electrical Power (W),Mechanical Power (W),Motor Efficiency (%),Propeller Mech. Efficiency (gf/W),Overall Efficiency (gf/W),Vibration (g),App message,
0.5521788749999949,1000,,,,-0.0625,0.038720703125,-0.998193359375,-0.009414538977048784,0.3094898323225116,7.82131415605545,0.029323809146881125,0,0,0.2293521849393736,0,0,0,0,0.06640625,,
0.5550802499998362,1100,,,,-0.05146484375,0.020654296875,-0.99833984375,0.03134680129393358,3.9674717635723913,7.819148218631744,0.06544589355587957,0,0,0.5117307665503833,0,0,0,0,0.08701171875,,
2.912802624999831,1200,,,,-0.054443359375,0.025048828125,-0.99228515625,0.11881848648754112,14.809277271358104,7.8117785334587095,0.20346398588269957,4688,0,1.589414270991399,0.5720528519383568,36.00382062020416,25.975595855057403,9.322055918322011,0.33291015625,,
5.151725749999827,1250,,,,-0.062939453125,0.026708984375,-0.99833984375,0.16495619008855614,20.766314321054647,7.805424332618713,0.3143879925087093,5667,0,2.4539333698653936,0.9599153243538984,39.11829532060786,21.68772325858104,8.471780317769644,0.76142578125,,
7.414826249999843,1300,,,,-0.05771484375,0.026318359375,-0.994287109375,0.23470969709554693,28.610967504876083,7.796847426891327,0.4623857443407178,6561,0,3.605144960879644,1.5815682286383597,43.907896856381115,18.145430959285743,7.941028228001369,0.783349609375,,
9.669319874999879,1350,,,,-0.0599609375,0.025341796875,-1.001025390625,0.3111117141925806,38.127615621415025,7.7855263471603395,0.6484301460161809,7468,0,5.048367189924154,2.3861443688543273,47.27839493113123,15.99122059159746,7.5548273822496,0.654833984375,,
11.91544237499983,1400,,,,-0.054345703125,0.023828125,-1.012060546875,0.38638601084312635,47.64535324641477,7.771199119091034,0.8670528230443602,8294,0,6.738038310448884,3.291056797647599,48.84712871471042,14.4898338636398,7.071546580481492,1.410498046875,,
14.157836374999818,1450,,,,-0.051416015625,0.021728515625,-0.99599609375,0.4837930359623371,58.87255100929071,7.753135621547699,1.1395284188166266,9139,0,8.834894429355685,4.540468240133665,51.41244723229299,12.97314777147206,6.666168785282982,0.88818359375,,
16.44054224999982,1500,,,,-0.05341796875,0.021728515625,-1.001953125,0.5552793591836213,69.3075158993465,7.732457172870636,1.4236373556032782,9904,0,11.008207016910784,5.647506377094425,51.30846753935132,12.278328624405198,6.296561263556962,0.432373046875,,
18.666891624999835,1550,,,,-0.0572265625,0.021337890625,-0.997509765625,0.6326812180621668,80.01140779447172,7.708092796802521,1.745985753573478,10630,0,13.458217606454024,6.906356687652758,51.324095552912,11.588079496678876,5.945903621826555,0.277197265625,,
20.89780574999985,1600,,,,-0.057373046875,0.02841796875,-0.997021484375,0.7366771556484214,92.37336600434523,7.6777042031288145,2.1563403171673423,11329,0,16.55573886459931,8.57140370460694,51.77487043565096,10.782284457145902,5.579757738848293,0.17978515625,,
23.15129437499985,1650,,,,-0.05673828125,0.023583984375,-0.992431640625,0.8408584809142082,103.75595224107617,7.6485443949699405,2.5701204938068996,11981,0,19.65767261455439,10.34502412895706,52.627331623196746,10.03333567957565,5.278351486354925,0.1068359375,,
25.412300124999852,1700,,,,-0.06435546875,0.022998046875,-0.993505859375,0.9103597998817515,115.22308219807267,7.616469502449036,3.011911307014526,12658,0,22.94013341063862,11.833786657640312,51.58626751978064,9.737547432958262,5.022824580195014,0.120361328125,,
27.66677537499985,1750,,,,-0.057568359375,0.022705078125,-0.997412109375,1.0144786406060036,126.49161719372529,7.581020450592041,3.497851286567748,13228,0,26.517274185375623,13.7812707508614,51.972237806706765,9.179445705515157,4.77026945100578,0.18544921875,,
29.958010499999837,1800,,,,-0.05625,0.028173828125,-0.996337890625,1.0899234026191555,136.56267557642477,7.547309160232544,4.011298404373229,13762,0,30.274516022043066,15.403834397839029,50.88150088522663,8.866114787038976,4.510861686802722,0.315283203125,,
38.00383749999985,1850,,,,-0.054345703125,0.016259765625,-0.9923828125,1.1852932337464748,149.33177348478216,7.516565334796906,4.604103575386107,14340,0,34.60705617780353,17.455719052593576,50.439968197582076,8.555982314414871,4.3151127952735955,0.2638671875,,
46.157826374999786,1900,,,,-0.05576171875,0.0244140625,-0.996240234375,1.268087350117825,160.8453303881,7.48036904335022,5.180110262073577,14836,0,38.74916093283706,19.319933009766398,49.85921425411349,8.32601308409362,4.150991843450511,0.412255859375,,
54.443105499999845,1950,,,,-0.055712890625,0.0240234375,-0.997216796875,1.3482465304606983,171.80618605813703,7.438543772697448,5.775710068382323,15283,0,42.96289569024035,21.160340620988844,49.252351677989694,8.119941628259005,3.998989427089047,0.3623046875,,
62.857296749999875,2000,,,,-0.0578125,0.02275390625,-0.9939453125,1.3891733712391392,181.05083625115094,7.396636641025543,6.417423103488981,15735,0,47.467390659910734,22.447404062618403,47.29021915628748,8.066263555939193,3.8142261024079946,0.252490234375,,
