﻿Time (s),ESC signal (µs),Servo 1 (µs),Servo 2 (µs),Servo 3 (µs),AccX (g),AccY (g),AccZ (g),Torque (gf·m),Thrust (gf),Voltage (V),Current (A),Motor Electrical Speed (RPM),Motor Optical Speed (RPM),Electrical Power (W),Mechanical Power (W),Motor Efficiency (%),Propeller Mech. Efficiency (gf/W),Overall Efficiency (gf/W),Vibration (g),App message,
0.5077241249999849,1000,,,,-0.0625,0.03896484375,-0.993701171875,0.015374874135508702,0.6199837214618215,7.800099337100983,0.0249907776899636,0,0,0.19493026980670713,0,0,0,0,0.078466796875,,
0.501530624999915,1100,,,,-0.051806640625,0.025048828125,-1.000048828125,0.059802504415580306,3.974799242043919,7.797971296310425,0.06713385332375761,0,0,0.5235083839808214,0,0,0,0,0.090576171875,,
2.6144372499999475,1150,,,,-0.053369140625,0.018505859375,-0.99140625,0.09240711411432716,8.731416937797613,7.794938576221466,0.11878891933709379,3559,0,0.9259499944689363,0.33776454704277736,36.6879059436208,26.436453464452676,9.433193721741493,0.09111328125,,
4.734812124999939,1200,,,,-0.051123046875,0.018310546875,-0.99599609375,0.14270227068153604,14.826421007432158,7.790327870845795,0.20771796453744176,4659,0,1.6181876829276045,0.6828521731808147,42.25588749898268,21.953285414399772,9.180587370653464,0.116455078125,,
6.8695777499999435,1250,,,,-0.06064453125,0.02373046875,-0.992724609375,0.19919809239050693,21.627800410595142,7.784529542922973,0.3191445154324173,5621,0,2.484389661258955,1.1498549379523597,46.297018069864826,18.867722020655766,8.709278767366207,0.1845703125,,
8.995099874999939,1300,,,,-0.05673828125,0.021240234375,-0.9927734375,0.28097482153340586,29.92300806877149,7.774486398696899,0.47170235637575386,6501,0,3.6672406559902355,1.8757586398117432,51.16806190312182,15.969330363973611,8.163580952223079,0.30634765625,,
11.144927874999938,1350,,,,-0.0505859375,0.016650390625,-0.993115234375,0.3628266685335026,39.12473483286726,7.763137650489807,0.6618553591147068,7375,0,5.1380697338913865,2.7478414216400386,53.48907028966654,14.25230155172037,7.616007910168825,0.220458984375,,
13.301303999999913,1400,,,,-0.05634765625,0.02666015625,-0.999072265625,0.45301961083204245,49.19292524476555,7.74753589630127,0.8899899539723997,8229,0,6.8952207047972065,3.8283308609016884,55.53449468678396,12.854917631974564,7.136033676812578,0.3125,,
15.42866074999994,1450,,,,-0.055126953125,0.025634765625,-1.000537109375,0.538339814142627,59.38572017577404,7.72680823802948,1.1653274220600731,9002,0,9.004248776765921,4.97677075748369,55.29093168189286,11.944551644679484,6.596934856906526,0.41240234375,,
17.58915749999993,1500,,,,-0.052685546875,0.025732421875,-1.00146484375,0.6071193368106633,69.49082035714514,7.705712294578552,1.4550913793221123,9763,0,11.212507800532903,6.0870049539821816,54.294115055336405,11.420834995353173,6.198234038238897,0.286279296875,,
19.723272874999935,1550,,,,-0.053662109375,0.02158203125,-0.9935546875,0.7417541234473568,79.26993853890507,7.678662347793579,1.804128329195083,10444,0,13.853279525437685,7.955219437096353,57.433870137844394,9.971630695671626,5.723311641827691,0.178173828125,,
21.86957537499993,1600,,,,-0.055615234375,0.022216796875,-0.9947265625,0.8173285620215747,90.76444506634253,7.6522141098976135,2.169175205864013,11028,0,16.5990059455292,9.256237828159305,55.764405353870266,9.812202194707462,5.46829726401486,0.126123046875,,
24.005506249999925,1650,,,,-0.053564453125,0.023974609375,-1,0.9313021110031547,103.54624322528686,7.619356727600097,2.6663311344757683,11742,0,20.31571919204744,11.230283385931973,55.28189545539573,9.221925841250272,5.097046023029737,0.11494140625,,
26.161725624999917,1700,,,,-0.05517578125,0.019970703125,-0.995556640625,1.0632500511139427,118.15120561588206,7.586136496067047,3.1210646313801416,12304,0,23.676791010229067,13.435218154066442,56.75142720080013,8.795282033453988,4.990705364320818,0.114013671875,,
28.331442374999938,1750,,,,-0.054052734375,0.026123046875,-0.990771484375,1.1388342052009588,129.32636332757252,7.551937079429626,3.631486974395812,12845,0,27.42475151062145,15.022233986436603,54.778941814749615,8.610208028096125,4.715931319682326,0.114892578125,,
30.495909874999892,1800,,,,-0.052734375,0.02783203125,-0.997265625,1.20178640977829,140.34082922275323,7.517429161071777,4.144124565757812,13332,0,31.153172085010887,16.453498590038187,52.815537383997636,8.530177120992164,4.504902697520137,0.14013671875,,
38.4400434999999,1850,,,,-0.056982421875,0.019482421875,-1.002294921875,1.3214133766570122,152.06336880288657,7.483590304851532,4.788702045120299,13819,0,35.836704811681315,18.753003020574386,52.32891989838074,8.110855364288609,4.243283257569249,0.28056640625,,
46.50738549999997,1900,,,,-0.054638671875,0.023291015625,-0.9951171875,1.4174671684126299,163.09720551761265,7.442670130729676,5.395443914569915,14270,0,40.15652772716495,20.772324391608276,51.728171486341544,7.852319439229028,4.061551117545526,0.215185546875,,
54.70280887499994,1950,,,,-0.05322265625,0.02138671875,-0.9966796875,1.490108583544456,172.9199521043536,7.4032462477684025,6.013360975421966,14638,0,44.518426293696066,22.399914269717073,50.31578147535795,7.721930010280582,3.8842420556514647,0.36708984375,,
63.02158387499992,2000,,,,-0.052490234375,0.018896484375,-1.01337890625,1.5230257069303985,183.20722984996837,7.361010456085205,6.66684688154608,15082,0,49.07477993438552,23.58920597234654,48.068574657397804,7.76710792815437,3.7332462435567066,0.396240234375,,
