﻿Time (s),ESC signal (µs),Servo 1 (µs),Servo 2 (µs),Servo 3 (µs),Thrust (gf),Voltage (V),Current (A),Motor Electrical Speed (RPM),Motor Optical Speed (RPM),Electrical Power (W),Overall Efficiency (gf/W),App message,
0.9455682499997783,1000,,,,-0.9651384638316854,11.118565457511886,0.015102678591212018,0,0,0.16792080779579183,0,,
1.049849625000125,1100,,,,2.7152813121508856,11.117687867182,0.0571570152518656,0,0,0.6354533839549259,0,,
4.392241125000315,1200,,,,19.710307352563046,11.119000639688842,0.18211693998564518,3089,0,2.0249580935066063,9.746269285690662,,
7.587472375000177,1250,,,,30.71300717148092,11.11520830403381,0.2920098001233238,3838,0,3.2457481826784735,9.463712542396857,,
10.85884925000048,1300,,,,47.18447355110053,11.110952341169925,0.4276615776728076,4563,0,4.7517257756271984,9.9320601922324,,
14.109185750000364,1350,,,,63.35853670169457,11.109287067509745,0.5902518915651476,5224,0,6.557277856525604,9.662714311195694,,
17.399288125000385,1400,,,,81.92386209079508,11.109030703507432,0.7759152143229245,5852,0,8.619664895923774,9.504855015507284,,
20.70189575000014,1450,,,,101.31167956878353,11.110475543239483,1.0166390811101826,6493,0,11.295341468965873,8.969580321069456,,
23.787660125000166,1500,,,,123.08852549209155,11.111616960151654,1.3065501398205313,7152,0,14.517883937146678,8.478530126615993,,
27.0400555000004,1550,,,,147.73110380999472,11.112005453996563,1.6288751742641772,7797,0,18.10006859401409,8.162060702927302,,
30.238741750000372,1600,,,,171.6076602180692,11.111830555457084,2.0054935692948206,8405,0,22.28470223480729,7.700745994698643,,
33.57485762500042,1650,,,,195.67158707695054,11.111104711722898,2.4127562022366336,9024,0,26.808386206561142,7.298950171632403,,
36.780627000000344,1700,,,,223.64769793760163,11.111202636669148,2.8769188800937884,9574,0,31.96602718302224,6.99646925848751,,
40.04396837500032,1750,,,,251.50571520821973,11.112634837783371,3.3975626831105528,10149,0,37.75587088843974,6.661359704218263,,
43.35654550000028,1800,,,,279.0206759783817,11.112448212559768,3.961889902775945,10714,0,44.02629685003305,6.3376079416673825,,
52.55209437500029,1850,,,,309.7856695002064,11.111596204571189,4.605537196123404,11260,0,51.174865604004225,6.053476395895794,,
61.92816925000019,1900,,,,339.81155525834066,11.109089989571544,5.31651565428424,11759,0,59.061649901335294,5.753524641558024,,
71.41255175000018,1950,,,,371.60224977609244,11.10743956513645,6.06892732816427,12314,0,67.41023998481796,5.512557216056441,,
80.95899162500025,2000,,,,404.31528929459466,11.104261147281985,6.877085172995061,12816,0,76.36494915656758,5.294551505899212,,
