﻿Time (s),ESC signal (µs),Servo 1 (µs),Servo 2 (µs),Servo 3 (µs),AccX (g),AccY (g),AccZ (g),Torque (gf·m),Thrust (gf),Voltage (V),Current (A),Motor Electrical Speed (RPM),Motor Optical Speed (RPM),Electrical Power (W),Mechanical Power (W),Motor Efficiency (%),Propeller Mech. Efficiency (gf/W),Overall Efficiency (gf/W),Vibration (g),App message,
0.6209773749997491,1000,,,,-0.06181640625,0.0400390625,-0.9859375,-0.003996254321436355,0.7347666422417384,8.006825232505799,-0.012503993899299518,0,0,0.10096387752172117,0,0,0,0,0.06103515625,,
0.5902118750001188,1100,,,,-0.047900390625,0.023583984375,-1.0015625,-0.023449504606037005,4.934981980384575,8.003456425666808,0.037991630025208015,0,0,0.3040641866187751,0,0,0,0,0.09228515625,,
2.9998240000000918,1150,,,,-0.047216796875,0.021142578125,-0.99072265625,-0.06806442997851608,10.016385352733705,7.999387168884278,0.1015789793059229,3751,0,0.8125690903934546,0.26221173753534527,32.36573608016454,39.04264097519484,12.372226556944506,0.070849609375,,
5.351816500000189,1200,,,,-0.0482421875,0.01708984375,-0.990576171875,-0.1268640953380058,17.038224656644612,7.992825675010681,0.20409400697797545,4945,0,1.6312867683913908,0.6443046524752192,39.529478757917275,26.536596247769367,10.457699180777656,0.08818359375,,
7.755626875000179,1250,,,,-0.0501953125,0.02021484375,-0.99052734375,-0.19627515896960818,25.666731111448172,7.983952820301056,0.35395457569509725,6040,0,2.825954575491073,1.2175881535527313,43.14093661520555,21.149657291011945,9.093162958808557,0.130517578125,,
10.17182350000015,1300,,,,-0.049853515625,0.0234375,-0.9974609375,-0.2904929162092119,35.895720154411116,7.971062588691711,0.5473108929768207,7098,0,4.362652661872137,2.1174020334172248,48.54469154764997,16.965665283350287,8.229380268271306,0.14453125,,
12.555278625000083,1350,,,,-0.055029296875,0.02119140625,-0.9931640625,-0.36519208307138595,45.612875212828,7.9554808139801025,0.7605044392123823,7937,0,6.050175946193158,2.9767771580922573,49.208871508990356,15.335694272945847,7.540200482572616,0.193017578125,,
14.977961625000102,1400,,,,-0.04970703125,0.021142578125,-0.98818359375,-0.4555733665649445,56.97265654207104,7.936520385742187,1.034792618192733,8781,0,8.212641484515656,4.108206957252296,50.039003475196594,13.88474773091151,6.939483095934181,0.15625,,
17.349173375000102,1450,,,,-0.0568359375,0.023828125,-0.991943359375,-0.5522802647645497,69.07496993170275,7.913312304019928,1.3756523889675742,9623,0,10.885967420340059,5.457978121988891,50.14291347403662,12.65918226618146,6.345948431077774,0.14248046875,,
19.723965250000155,1500,,,,-0.044482421875,0.024072265625,-0.9919921875,-0.6611173781881003,82.06892315974547,7.884624433517456,1.777121595777572,10419,0,14.011930179737124,7.073751584219582,50.48926851169368,11.604646039340214,5.857684599532002,0.116796875,,
22.155888375000096,1550,,,,-0.05029296875,0.01943359375,-0.99365234375,-0.7812272660642096,96.19706003618877,7.848890173435211,2.2570150596275935,11178,0,17.715032404359913,8.967752153058544,50.63214636182731,10.728026326152682,5.431472969218485,0.087060546875,,
24.591017125000167,1600,,,,-0.049658203125,0.0181640625,-0.988037109375,-0.8968793336130195,110.06178687932737,7.811790144443512,2.7610667628422387,11861,0,21.568875106006097,10.924324929436654,50.64935864688378,10.078839761597582,5.1028811140451165,0.089404296875,,
26.999690625000103,1650,,,,-0.05126953125,0.019921875,-0.990771484375,-1.0103916493856253,123.47795668028911,7.77098171710968,3.3236584765091544,12579,0,25.828095988931445,13.052532228329913,50.53978477379919,9.46102841830213,4.781045099619462,0.098974609375,,
29.421821750000145,1700,,,,-0.04814453125,0.015869140625,-0.993994140625,-1.1082676892160765,136.31095105543463,7.725095522403717,3.903271697200835,13181,0,30.15315032503017,15.001718548095486,49.7536083336478,9.087086779097572,4.520774484378887,0.108740234375,,
31.82260437500015,1750,,,,-0.05849609375,0.02177734375,-0.9904296875,-1.1943427336626669,148.4366247882401,7.67840393781662,4.493239436782897,13752,0,34.5009241674746,16.86688441219055,48.888586590621486,8.801473334981504,4.302471704094515,0.161669921875,,
34.22692575000015,1800,,,,-0.050341796875,0.023193359375,-1.000439453125,-1.3191109509812438,161.5257230811299,7.631212103366852,5.123699174560607,14211,0,39.10003352865309,19.252429102708494,49.2388676519124,8.393214528437015,4.131133341932034,0.210693359375,,
42.41811312500012,1850,,,,-0.052294921875,0.022265625,-0.99677734375,-1.453062275640075,175.39756377363005,7.589874541759491,5.845655344165862,14782,0,44.36783190138442,22.05819859995325,49.71763264967133,7.952008529045037,3.9533076136532617,0.199560546875,,
50.64564412500009,1900,,,,-0.0529296875,0.023388671875,-0.994580078125,-1.562608535100251,187.55143120822217,7.542373263835907,6.563705013431608,15240,0,49.50600298611871,24.456059252447155,49.40059802695259,7.669347543912074,3.788504573534241,0.202978515625,,
59.01137887500015,1950,,,,-0.05009765625,0.0205078125,-0.994091796875,-1.6928761903013252,198.83362244472877,7.491300916671753,7.326988170780238,15645,0,54.888732807299576,27.199924278086804,49.55431852134884,7.310642900310087,3.622548241959087,0.19814453125,,
67.63905612500008,2000,,,,-0.0515625,0.01865234375,-0.99150390625,-1.7954655706322953,208.8788263643957,7.433541572093963,8.112127910293633,16016,0,60.30193936777554,29.531714338415874,48.97305211502423,7.0733536351481465,3.463901675227137,0.225927734375,,
