﻿Time (s),ESC signal (µs),Servo 1 (µs),Servo 2 (µs),Servo 3 (µs),AccX (g),AccY (g),AccZ (g),Torque (N·m),Thrust (gf),Voltage (V),Current (A),Motor Electrical Speed (RPM),Motor Optical Speed (RPM),Electrical Power (W),Mechanical Power (W),Motor Efficiency (%),Propeller Mech. Efficiency (gf/W),Overall Efficiency (gf/W),Vibration (g),App message,
0.845098875000002,1000,,,,-0.0625,0.039111328125,-1.000390625,0.000034129446220350056,-0.37812395469967025,11.11676332950592,0.026872918684966864,0,0,0.2987420821155187,0,0,0,0,0.0671875,,
0.9396575000001931,1100,,,,-0.05146484375,0.018310546875,-0.99794921875,0.000764370244114543,4.044270294091099,11.116341090202331,0.06630137376487255,1751,0,0.7370302054586617,0.14015988778150226,19.14570793447386,29.186254984354044,5.5309916127469645,0.075537109375,,
4.01456687500017,1200,,,,-0.055615234375,0.019921875,-0.99599609375,0.00313563757977883,20.476157860923948,11.113557910919189,0.1897734683007002,3568,0,2.10906013883854,1.1717448537304516,55.643915582062675,17.50517883590346,9.725151825875574,0.109033203125,,
7.135055500000158,1250,,,,-0.054736328125,0.02197265625,-0.995166015625,0.00475762923285614,32.614283514651454,11.112117099761964,0.29750124365091324,4421,0,3.3058690046753503,2.2023830291470956,66.63602034260921,14.812102805752836,9.867932656694252,0.168408203125,,
10.299466250000192,1300,,,,-0.050439453125,0.02255859375,-1,0.006798675713711145,47.86731123535251,11.109966397285461,0.4491373598575592,5253,0,4.989904142120175,3.74000489040505,74.9738126441017,12.801088106790367,9.595458136050503,0.14189453125,,
13.368624750000189,1350,,,,-0.0560546875,0.019580078125,-0.995556640625,0.008931411993844368,65.01881142383841,11.106355929374695,0.6162946060299873,6008,0,6.844787040279924,5.61940438040714,82.10305803966523,11.571724114845779,9.499826567582833,0.274658203125,,
16.475140250000187,1400,,,,-0.058154296875,0.022607421875,-0.996875,0.011124544159795814,83.38159634284257,11.103192830085755,0.8143353179097176,6709,0,9.041720521236963,7.8155574502527525,86.44849694046667,10.66926225388347,9.222776453151557,0.3271484375,,
19.602321625000197,1450,,,,-0.0576171875,0.026318359375,-0.996533203125,0.013637912615228339,104.17666172886702,11.099673199653626,1.0805858194828033,7454,0,11.994152231333704,10.64493196172654,88.77313679260064,9.78719728332038,8.687588751536,0.383642578125,,
22.781061250000107,1500,,,,-0.06123046875,0.018701171875,-0.992138671875,0.016343648618502144,127.60373892313493,11.094723534584045,1.4002002239227296,8185,0,15.534841524102134,14.00853420802603,90.1844581450505,9.109311032951293,8.21500773974797,1.198974609375,,
25.915755500000227,1550,,,,-0.059521484375,0.025048828125,-0.997900390625,0.019270646725590247,151.74956860621313,11.089062190055847,1.7778472423553466,8909,0,19.714661026929456,17.979608833123823,91.20152641517453,8.440727368058214,7.697508766918664,0.5373046875,,
29.00648100000011,1600,,,,-0.05087890625,0.017724609375,-0.999658203125,0.022743034941527816,180.08261522859894,11.08168535232544,2.2283102333545686,9601,0,24.693433400334023,22.866653404520314,92.60468205315132,7.8755475137599165,7.292934593117602,0.4056640625,,
32.08074175000017,1650,,,,-0.051953125,0.01884765625,-0.995458984375,0.025716199538891416,206.6696452748443,11.073230743408203,2.698913890123367,10255,0,29.885686647133163,27.616328330797263,92.41077679801899,7.483915001264191,6.915623143210856,0.32587890625,,
35.15847987500019,1700,,,,-0.052783203125,0.023193359375,-0.99580078125,0.028855096103254076,233.54491008426112,11.064920878410339,3.221408313512802,10931,0,35.64461142849608,33.03023782131379,92.67089286438181,7.070780522688373,6.552422756691214,0.27509765625,,
38.32330275000019,1750,,,,-0.063525390625,0.0171875,-0.989453125,0.03181441834187132,260.5355654311547,11.057357621192931,3.7512896716594697,11533,0,41.47935625096027,38.42529476776373,92.63860873279687,6.780999206593236,6.281282589844674,0.3287109375,,
41.46691112500019,1800,,,,-0.108203125,0.246044921875,-1.053369140625,0.035265734351102244,290.9182449042438,11.047176003456116,4.3819618940353395,12182,0,48.40828949306962,44.98727120719118,92.93799164048268,6.466886384957841,6.009954792587534,0.31494140625,,
50.39784712500018,1850,,,,-0.055322265625,0.0212890625,-0.995263671875,0.03827425999132712,319.0436756343479,11.037177634239196,5.044293582439423,12776,0,55.6747607403163,51.20616873680645,91.97437130653262,6.230639179229392,5.730495636348228,0.319482421875,,
59.43090537500025,1900,,,,-0.055322265625,0.02236328125,-0.9978515625,0.042825227044068916,353.8751002160951,11.02491898536682,5.828815042972565,13354,0,64.2622083662219,59.888541620306924,93.19398677881898,5.908925119410447,5.506734487664292,0.25888671875,,
68.70306737500017,1950,,,,-0.05771484375,0.018896484375,-0.996484375,0.04580342797852134,381.0504080321541,11.013410639762878,6.583440494537354,13941,0,72.50612870068281,66.86690340879346,92.22188567197159,5.698770307475668,5.2554288474212285,0.175390625,,
78.0010748750002,2000,,,,-0.055615234375,0.023583984375,-0.9986328125,0.0494259735251743,413.5491895106269,10.999943041801453,7.477015626430512,14494,0,82.24674272648966,75.01873918329865,91.21228931252207,5.512634101868248,5.02818672537822,0.174560546875,,
