﻿Time (s),ESC signal (µs),Servo 1 (µs),Servo 2 (µs),Servo 3 (µs),AccX (g),AccY (g),AccZ (g),Torque (N·m),Thrust (gf),Voltage (V),Current (A),Motor Electrical Speed (RPM),Motor Optical Speed (RPM),Electrical Power (W),Mechanical Power (W),Motor Efficiency (%),Propeller Mech. Efficiency (gf/W),Overall Efficiency (gf/W),Vibration (g),App message,
0.48550349999999165,1000,,,,-0.0625,0.038134765625,-0.99560546875,0.00048037917911547215,0.07217794777858944,15.662230062484742,0.019503858918324114,0,0,0.305471195832798,0,0,0,0,0.067041015625,,
0.4783975000001723,1100,,,,-0.051025390625,0.023681640625,-0.993310546875,0.0025191091218550875,11.426810735012864,15.659690284729004,0.08958757370710373,1178,0,1.4029150617464405,0.31063408730949077,22.254611680248527,37.001331753675764,8.187240718956934,0.0818359375,,
2.52576712500027,1150,,,,-0.054150390625,0.029345703125,-0.999462890625,0.005787432746034269,28.329252579684827,15.65621566772461,0.18504948616027833,1803,0,2.8971765315305507,1.0929032953918543,38.02144065078657,26.575655692530027,9.858335974163577,0.091064453125,,
4.601488000000199,1200,,,,-0.060546875,0.030126953125,-0.99296875,0.010130065688773686,52.111308214979246,15.65052044391632,0.3284500062465668,2404,0,5.140411442182043,2.550007636705345,49.63898328763075,20.463984842091936,10.14610040125508,0.233203125,,
6.649269875000185,1250,,,,-0.05546875,0.030419921875,-0.99921875,0.015324064067670829,81.01607553860443,15.642841100692749,0.5315110951662063,2972,0,8.314331446547573,4.769384190804333,57.536342114264,17.018542326440866,9.771064090805675,0.19951171875,,
8.72705487500022,1300,,,,-0.059912109375,0.029443359375,-0.99541015625,0.02136162130486701,115.4987849510126,15.63153908252716,0.7790052250027657,3491,0,12.177054511385391,7.809560304785924,64.1511216295272,14.790354967822614,9.48790781020405,0.209765625,,
10.801462375000188,1350,,,,-0.057763671875,0.028369140625,-0.994482421875,0.027616713167098843,157.59366614418337,15.61777024269104,1.09944187104702,3977,0,17.170812921929752,11.5028396233705,67.06144033906669,13.7062046792608,9.187029203709027,0.443701171875,,
12.88306512500022,1400,,,,-0.055517578125,0.034521484375,-0.99677734375,0.035472027399307805,206.6357321679631,15.597524571418763,1.5522260218858719,4494,0,24.210879951254093,16.694917645170005,68.96773860181608,12.377721814397312,8.536362824096615,0.3216796875,,
14.976908625000188,1450,,,,-0.058740234375,0.027490234375,-0.99638671875,0.043961093347444316,258.6828648726034,15.57108154296875,2.081444627046585,4966,0,32.410338921820916,22.862742897846104,70.55740713722693,11.315632302751801,7.983118536302703,0.551953125,,
17.069864125000198,1500,,,,-0.056884765625,0.010107421875,-1.002587890625,0.05248948901083241,313.1465455533244,15.543110632896424,2.6696129977703094,5414,0,41.494085164020944,29.757714478058766,71.72678479790822,10.523879342937366,7.5479178216703025,1.072509765625,,
19.142314500000175,1550,,,,-0.064306640625,0.044287109375,-1.001171875,0.06198983419773636,372.7849032916448,15.506471824645995,3.4073360681533815,5899,0,52.835732831018944,38.293674406516985,72.4893572144665,9.735441730432628,7.056790594850195,0.63056640625,,
21.23265262500015,1600,,,,-0.061376953125,0.03408203125,-0.99736328125,0.07151898099332735,430.49743132770726,15.468104434013366,4.187352919578553,6356,0,64.77038736611898,47.60018455396694,73.49777445045972,9.044371902716268,6.647168829846294,0.48173828125,,
23.328026250000217,1650,,,,-0.056689453125,0.028662109375,-1.005517578125,0.08153286651574511,494.33827092288664,15.42374246120453,5.094941699504853,6827,0,78.58301075625457,58.28889657935768,74.18408756488759,8.481289074529018,6.291407479452176,0.551025390625,,
25.40524800000015,1700,,,,-0.05400390625,0.031201171875,-0.9951171875,0.09213922814049784,561.1241222097004,15.37420301437378,6.104002439975739,7278,0,93.84408894597618,70.22052814589628,74.83758218742172,7.99113121515894,5.980102882637643,0.64384765625,,
27.493889000000195,1750,,,,-0.062841796875,0.0376953125,-0.9990234375,0.10259588288132411,625.8950432608833,15.321719741821289,7.219362020492554,7700,0,110.61305411069297,82.72761588422722,74.79633630168007,7.5658310837785505,5.658864276104586,0.602294921875,,
29.618318500000193,1800,,,,-0.149169921875,0.038818359375,-0.96708984375,0.11430310560175402,699.4838886706775,15.26386399269104,8.503027749061584,8110,0,129.78905266804358,97.07971923104829,74.79932078816049,7.205269695294216,5.38947163940856,0.52421875,,
37.48099600000022,1850,,,,-0.056884765625,0.03310546875,-0.998681640625,0.12726716814511363,784.1515122037171,15.219911813735962,9.945379996299744,8522,0,151.3678564162609,113.5821931202498,75.0395243062247,6.903848494509342,5.180581439929063,0.5328125,,
45.481750125000204,1900,,,,-0.05341796875,0.0240234375,-0.99716796875,0.13905774442391322,856.9623958857193,15.162708497047424,11.388375091552735,8928,0,172.67874616759258,130.01244266157397,75.29310059019994,6.591453930524037,4.96289399498207,0.495947265625,,
53.64546062500017,1950,,,,-0.055615234375,0.03125,-0.997998046875,0.15074903416707622,932.6282408953921,15.098355579376221,12.967198348045349,9268,0,195.78341413778952,146.31054797524067,74.73154978583332,6.3754440008199715,4.7636290294355215,0.678759765625,,
61.86322537500024,2000,,,,-0.0486328125,0.0224609375,-0.995654296875,0.16266255276664635,1009.843154061604,15.035351157188416,14.63152494430542,9681,0,219.99023691690553,164.9059954068424,74.96064514044676,6.123755010127129,4.590406329033102,0.513232421875,,
