﻿Time (s),ESC signal (µs),Servo 1 (µs),Servo 2 (µs),Servo 3 (µs),Thrust (gf),Voltage (V),Current (A),Motor Electrical Speed (RPM),Motor Optical Speed (RPM),Electrical Power (W),Overall Efficiency (gf/W),App message,
1.3762432499999975,1000,,,,0.7133364160431227,11.093677552273896,0.01061484486359153,0,0,0.11775717338469127,0,,
1.2855760500000022,1100,,,,22.771906844287628,11.08917603103399,0.15666278465148406,0,0,1.7372613478748542,0,,
6.860062750000004,1194.736842105264,,,,53.473629903187835,11.084041570818242,0.36005503358809043,0,0,3.990866228525848,0,,
11.939831250000005,1242.1052631578934,,,,71.437080632571,11.07907961179509,0.5005919467814972,0,0,5.546096571907492,0,,
17.122619800000002,1289.473684210523,,,,90.73184452363911,11.074045604884473,0.6655303438431175,0,0,7.370113080980899,0,,
22.294154700000014,1336.8421052631593,,,,109.6433797178511,11.068124876668413,0.8489621534557276,0,0,9.396432926780493,0,,
27.456129800000006,1384.2105263157873,,,,131.80783905581526,11.061905181611047,1.0796545483277875,0,0,11.943035786205263,0,,
32.6241282,1431.578947368424,,,,159.205250792881,11.053345646449946,1.3506491182251041,0,0,14.929190600128296,0,,
37.830063349999996,1478.9473684210516,,,,186.62069975922918,11.044497085401183,1.658950495237126,0,0,18.322273954741163,0,,
43.021663149999995,1526.315789473682,,,,218.65805161810158,11.03232917989451,2.068928519083942,0,0,22.82509577510115,0,,
57.23544715000003,1573.684210526318,,,,263.45814121589893,11.018256842047036,2.5557511560435997,0,0,28.159922746999055,0,,
72.39372505000001,1621.0526315789496,,,,298.521281256314,11.003614682291225,3.05947049739653,0,0,33.6652336012024,0,,
88.46677525000003,1668.4210526315758,,,,338.76050290862617,10.987972164784699,3.599224242050268,0,0,39.54817043409126,0,,
105.50370095,1715.7894736842127,,,,385.40597323335703,10.971480367481927,4.216266362284504,0,0,46.258680969647855,0,,
123.51885365000003,1763.1578947368441,,,,432.85573941460655,10.954393997957244,4.8676443643581555,0,0,53.3220968903486,0,,
142.57702225000006,1810.526315789474,,,,487.691512970399,10.934874304785678,5.590159840007754,0,0,61.12769150576849,0,,
162.7172723,1857.8947368421066,,,,540.1244205637033,10.91526712273244,6.38830885293569,0,0,69.73009132744491,0,,
183.56938825000006,1905.2631578947394,,,,599.0148386556583,10.89497023241957,7.221914181508001,0,0,78.68254198376324,0,,
205.48598545000004,1952.6315789473667,,,,639.498587370128,10.877192466468518,8.005497340688695,0,0,87.07733438360655,0,,
228.29241415,2000,,,,746.6842318611242,10.829818063814649,9.89647308862598,0,0,107.177004506431,0,,
